%YAML 1.1
%TAG !u! tag:unity3d.com,2011:
--- !u!1 &3866572055148130324
GameObject:
  m_ObjectHideFlags: 0
  m_CorrespondingSourceObject: {fileID: 0}
  m_PrefabInstance: {fileID: 0}
  m_PrefabAsset: {fileID: 0}
  serializedVersion: 6
  m_Component:
  - component: {fileID: 5411873148015785945}
  - component: {fileID: 2285917905274137354}
  - component: {fileID: 2610166636106882456}
  m_Layer: 0
  m_Name: Layer1
  m_TagString: Untagged
  m_Icon: {fileID: 0}
  m_NavMeshLayer: 0
  m_StaticEditorFlags: 0
  m_IsActive: 1
--- !u!4 &5411873148015785945
Transform:
  m_ObjectHideFlags: 0
  m_CorrespondingSourceObject: {fileID: 0}
  m_PrefabInstance: {fileID: 0}
  m_PrefabAsset: {fileID: 0}
  m_GameObject: {fileID: 3866572055148130324}
  m_LocalRotation: {x: -0, y: -0, z: -0, w: 1}
  m_LocalPosition: {x: 0, y: 0, z: 0}
  m_LocalScale: {x: 1, y: 1, z: 1}
  m_ConstrainProportionsScale: 0
  m_Children: []
  m_Father: {fileID: 6427657787950668431}
  m_RootOrder: 0
  m_LocalEulerAnglesHint: {x: 0, y: 0, z: 0}
--- !u!1839735485 &2285917905274137354
Tilemap:
  m_ObjectHideFlags: 0
  m_CorrespondingSourceObject: {fileID: 0}
  m_PrefabInstance: {fileID: 0}
  m_PrefabAsset: {fileID: 0}
  m_GameObject: {fileID: 3866572055148130324}
  m_Enabled: 1
  m_Tiles:
  - first: {x: -1, y: 2, z: 0}
    second:
      serializedVersion: 2
      m_TileIndex: 21
      m_TileSpriteIndex: 21
      m_TileMatrixIndex: 0
      m_TileColorIndex: 0
      m_TileObjectToInstantiateIndex: 65535
      dummyAlignment: 0
      m_AllTileFlags: 1073741825
  - first: {x: 0, y: 2, z: 0}
    second:
      serializedVersion: 2
      m_TileIndex: 24
      m_TileSpriteIndex: 24
      m_TileMatrixIndex: 0
      m_TileColorIndex: 0
      m_TileObjectToInstantiateIndex: 65535
      dummyAlignment: 0
      m_AllTileFlags: 1073741825
  - first: {x: 1, y: 2, z: 0}
    second:
      serializedVersion: 2
      m_TileIndex: 25
      m_TileSpriteIndex: 25
      m_TileMatrixIndex: 0
      m_TileColorIndex: 0
      m_TileObjectToInstantiateIndex: 65535
      dummyAlignment: 0
      m_AllTileFlags: 1073741825
  - first: {x: 2, y: 2, z: 0}
    second:
      serializedVersion: 2
      m_TileIndex: 28
      m_TileSpriteIndex: 28
      m_TileMatrixIndex: 0
      m_TileColorIndex: 0
      m_TileObjectToInstantiateIndex: 65535
      dummyAlignment: 0
      m_AllTileFlags: 1073741825
  - first: {x: 3, y: 2, z: 0}
    second:
      serializedVersion: 2
      m_TileIndex: 26
      m_TileSpriteIndex: 26
      m_TileMatrixIndex: 0
      m_TileColorIndex: 0
      m_TileObjectToInstantiateIndex: 65535
      dummyAlignment: 0
      m_AllTileFlags: 1073741825
  - first: {x: 4, y: 2, z: 0}
    second:
      serializedVersion: 2
      m_TileIndex: 22
      m_TileSpriteIndex: 22
      m_TileMatrixIndex: 0
      m_TileColorIndex: 0
      m_TileObjectToInstantiateIndex: 65535
      dummyAlignment: 0
      m_AllTileFlags: 1073741825
  - first: {x: 5, y: 2, z: 0}
    second:
      serializedVersion: 2
      m_TileIndex: 30
      m_TileSpriteIndex: 30
      m_TileMatrixIndex: 0
      m_TileColorIndex: 0
      m_TileObjectToInstantiateIndex: 65535
      dummyAlignment: 0
      m_AllTileFlags: 1073741825
  - first: {x: -1, y: 3, z: 0}
    second:
      serializedVersion: 2
      m_TileIndex: 16
      m_TileSpriteIndex: 16
      m_TileMatrixIndex: 0
      m_TileColorIndex: 0
      m_TileObjectToInstantiateIndex: 65535
      dummyAlignment: 0
      m_AllTileFlags: 1073741825
  - first: {x: 0, y: 3, z: 0}
    second:
      serializedVersion: 2
      m_TileIndex: 17
      m_TileSpriteIndex: 17
      m_TileMatrixIndex: 0
      m_TileColorIndex: 0
      m_TileObjectToInstantiateIndex: 65535
      dummyAlignment: 0
      m_AllTileFlags: 1073741825
  - first: {x: 1, y: 3, z: 0}
    second:
      serializedVersion: 2
      m_TileIndex: 27
      m_TileSpriteIndex: 27
      m_TileMatrixIndex: 0
      m_TileColorIndex: 0
      m_TileObjectToInstantiateIndex: 65535
      dummyAlignment: 0
      m_AllTileFlags: 1073741825
  - first: {x: 2, y: 3, z: 0}
    second:
      serializedVersion: 2
      m_TileIndex: 18
      m_TileSpriteIndex: 18
      m_TileMatrixIndex: 0
      m_TileColorIndex: 0
      m_TileObjectToInstantiateIndex: 65535
      dummyAlignment: 0
      m_AllTileFlags: 1073741825
  - first: {x: 3, y: 3, z: 0}
    second:
      serializedVersion: 2
      m_TileIndex: 19
      m_TileSpriteIndex: 19
      m_TileMatrixIndex: 0
      m_TileColorIndex: 0
      m_TileObjectToInstantiateIndex: 65535
      dummyAlignment: 0
      m_AllTileFlags: 1073741825
  - first: {x: 4, y: 3, z: 0}
    second:
      serializedVersion: 2
      m_TileIndex: 20
      m_TileSpriteIndex: 20
      m_TileMatrixIndex: 0
      m_TileColorIndex: 0
      m_TileObjectToInstantiateIndex: 65535
      dummyAlignment: 0
      m_AllTileFlags: 1073741825
  - first: {x: 5, y: 3, z: 0}
    second:
      serializedVersion: 2
      m_TileIndex: 29
      m_TileSpriteIndex: 29
      m_TileMatrixIndex: 0
      m_TileColorIndex: 0
      m_TileObjectToInstantiateIndex: 65535
      dummyAlignment: 0
      m_AllTileFlags: 1073741825
  - first: {x: 6, y: 3, z: 0}
    second:
      serializedVersion: 2
      m_TileIndex: 23
      m_TileSpriteIndex: 23
      m_TileMatrixIndex: 0
      m_TileColorIndex: 0
      m_TileObjectToInstantiateIndex: 65535
      dummyAlignment: 0
      m_AllTileFlags: 1073741825
  - first: {x: -1, y: 4, z: 0}
    second:
      serializedVersion: 2
      m_TileIndex: 8
      m_TileSpriteIndex: 8
      m_TileMatrixIndex: 0
      m_TileColorIndex: 0
      m_TileObjectToInstantiateIndex: 65535
      dummyAlignment: 0
      m_AllTileFlags: 1073741825
  - first: {x: 0, y: 4, z: 0}
    second:
      serializedVersion: 2
      m_TileIndex: 9
      m_TileSpriteIndex: 9
      m_TileMatrixIndex: 0
      m_TileColorIndex: 0
      m_TileObjectToInstantiateIndex: 65535
      dummyAlignment: 0
      m_AllTileFlags: 1073741825
  - first: {x: 1, y: 4, z: 0}
    second:
      serializedVersion: 2
      m_TileIndex: 10
      m_TileSpriteIndex: 10
      m_TileMatrixIndex: 0
      m_TileColorIndex: 0
      m_TileObjectToInstantiateIndex: 65535
      dummyAlignment: 0
      m_AllTileFlags: 1073741825
  - first: {x: 2, y: 4, z: 0}
    second:
      serializedVersion: 2
      m_TileIndex: 11
      m_TileSpriteIndex: 11
      m_TileMatrixIndex: 0
      m_TileColorIndex: 0
      m_TileObjectToInstantiateIndex: 65535
      dummyAlignment: 0
      m_AllTileFlags: 1073741825
  - first: {x: 3, y: 4, z: 0}
    second:
      serializedVersion: 2
      m_TileIndex: 12
      m_TileSpriteIndex: 12
      m_TileMatrixIndex: 0
      m_TileColorIndex: 0
      m_TileObjectToInstantiateIndex: 65535
      dummyAlignment: 0
      m_AllTileFlags: 1073741825
  - first: {x: 4, y: 4, z: 0}
    second:
      serializedVersion: 2
      m_TileIndex: 13
      m_TileSpriteIndex: 13
      m_TileMatrixIndex: 0
      m_TileColorIndex: 0
      m_TileObjectToInstantiateIndex: 65535
      dummyAlignment: 0
      m_AllTileFlags: 1073741825
  - first: {x: 5, y: 4, z: 0}
    second:
      serializedVersion: 2
      m_TileIndex: 14
      m_TileSpriteIndex: 14
      m_TileMatrixIndex: 0
      m_TileColorIndex: 0
      m_TileObjectToInstantiateIndex: 65535
      dummyAlignment: 0
      m_AllTileFlags: 1073741825
  - first: {x: 6, y: 4, z: 0}
    second:
      serializedVersion: 2
      m_TileIndex: 15
      m_TileSpriteIndex: 15
      m_TileMatrixIndex: 0
      m_TileColorIndex: 0
      m_TileObjectToInstantiateIndex: 65535
      dummyAlignment: 0
      m_AllTileFlags: 1073741825
  - first: {x: -1, y: 5, z: 0}
    second:
      serializedVersion: 2
      m_TileIndex: 0
      m_TileSpriteIndex: 0
      m_TileMatrixIndex: 0
      m_TileColorIndex: 0
      m_TileObjectToInstantiateIndex: 65535
      dummyAlignment: 0
      m_AllTileFlags: 1073741825
  - first: {x: 0, y: 5, z: 0}
    second:
      serializedVersion: 2
      m_TileIndex: 1
      m_TileSpriteIndex: 1
      m_TileMatrixIndex: 0
      m_TileColorIndex: 0
      m_TileObjectToInstantiateIndex: 65535
      dummyAlignment: 0
      m_AllTileFlags: 1073741825
  - first: {x: 1, y: 5, z: 0}
    second:
      serializedVersion: 2
      m_TileIndex: 2
      m_TileSpriteIndex: 2
      m_TileMatrixIndex: 0
      m_TileColorIndex: 0
      m_TileObjectToInstantiateIndex: 65535
      dummyAlignment: 0
      m_AllTileFlags: 1073741825
  - first: {x: 2, y: 5, z: 0}
    second:
      serializedVersion: 2
      m_TileIndex: 3
      m_TileSpriteIndex: 3
      m_TileMatrixIndex: 0
      m_TileColorIndex: 0
      m_TileObjectToInstantiateIndex: 65535
      dummyAlignment: 0
      m_AllTileFlags: 1073741825
  - first: {x: 3, y: 5, z: 0}
    second:
      serializedVersion: 2
      m_TileIndex: 4
      m_TileSpriteIndex: 4
      m_TileMatrixIndex: 0
      m_TileColorIndex: 0
      m_TileObjectToInstantiateIndex: 65535
      dummyAlignment: 0
      m_AllTileFlags: 1073741825
  - first: {x: 4, y: 5, z: 0}
    second:
      serializedVersion: 2
      m_TileIndex: 5
      m_TileSpriteIndex: 5
      m_TileMatrixIndex: 0
      m_TileColorIndex: 0
      m_TileObjectToInstantiateIndex: 65535
      dummyAlignment: 0
      m_AllTileFlags: 1073741825
  - first: {x: 5, y: 5, z: 0}
    second:
      serializedVersion: 2
      m_TileIndex: 6
      m_TileSpriteIndex: 6
      m_TileMatrixIndex: 0
      m_TileColorIndex: 0
      m_TileObjectToInstantiateIndex: 65535
      dummyAlignment: 0
      m_AllTileFlags: 1073741825
  - first: {x: 6, y: 5, z: 0}
    second:
      serializedVersion: 2
      m_TileIndex: 7
      m_TileSpriteIndex: 7
      m_TileMatrixIndex: 0
      m_TileColorIndex: 0
      m_TileObjectToInstantiateIndex: 65535
      dummyAlignment: 0
      m_AllTileFlags: 1073741825
  m_AnimatedTiles: {}
  m_TileAssetArray:
  - m_RefCount: 1
    m_Data: {fileID: 11400000, guid: 44379683bcec750fa8dd3905627dfbfb, type: 2}
  - m_RefCount: 1
    m_Data: {fileID: 11400000, guid: edde307bb3cf3fd338d83df4c8a669c4, type: 2}
  - m_RefCount: 1
    m_Data: {fileID: 11400000, guid: 7bc39fc2824978cb1a6c1b0378bee0f2, type: 2}
  - m_RefCount: 1
    m_Data: {fileID: 11400000, guid: 0aa8f7df26a8e3c078cb6870f4cab34e, type: 2}
  - m_RefCount: 1
    m_Data: {fileID: 11400000, guid: 785d8ebcd3027c5f19386a1d5f24f65d, type: 2}
  - m_RefCount: 1
    m_Data: {fileID: 11400000, guid: d5f74a2628f20047baa4266159619274, type: 2}
  - m_RefCount: 1
    m_Data: {fileID: 11400000, guid: d54d8d59ae0ea511bbb075cd96c56690, type: 2}
  - m_RefCount: 1
    m_Data: {fileID: 11400000, guid: 854cd0ade26ad1d65b90f68768b997d7, type: 2}
  - m_RefCount: 1
    m_Data: {fileID: 11400000, guid: fdb0477f07de0b35789c5bb5f2186f07, type: 2}
  - m_RefCount: 1
    m_Data: {fileID: 11400000, guid: 148e88358d65144e4b0d921ea99a2ab3, type: 2}
  - m_RefCount: 1
    m_Data: {fileID: 11400000, guid: 4931d3d1d44409806ad1628cbde58e39, type: 2}
  - m_RefCount: 1
    m_Data: {fileID: 11400000, guid: c210d702d0a1f0bc5bcc9efc9b806d2f, type: 2}
  - m_RefCount: 1
    m_Data: {fileID: 11400000, guid: fe8a38553887d8605b6c068235ad181c, type: 2}
  - m_RefCount: 1
    m_Data: {fileID: 11400000, guid: 4fddf2e25f0652382945b205e7d79fe2, type: 2}
  - m_RefCount: 1
    m_Data: {fileID: 11400000, guid: 2fadab1b318478138a8362cba6bc77d4, type: 2}
  - m_RefCount: 1
    m_Data: {fileID: 11400000, guid: f0df434a9071c75c6a11b003f8f3d7c3, type: 2}
  - m_RefCount: 1
    m_Data: {fileID: 11400000, guid: 31be95d008e79dab6a68e5145a15cc5c, type: 2}
  - m_RefCount: 1
    m_Data: {fileID: 11400000, guid: c2c5164eade9544c49fb4e5305343ca2, type: 2}
  - m_RefCount: 1
    m_Data: {fileID: 11400000, guid: d8edaa6105c1813cfa86b6b34740f015, type: 2}
  - m_RefCount: 1
    m_Data: {fileID: 11400000, guid: 398e35a9be4eb2844a16c832919fd7b2, type: 2}
  - m_RefCount: 1
    m_Data: {fileID: 11400000, guid: 1fce933d7a6f74f7c9dac3daa3e3a1c9, type: 2}
  - m_RefCount: 1
    m_Data: {fileID: 11400000, guid: 3d68f3ce2167c1e96b25d1c388ead463, type: 2}
  - m_RefCount: 1
    m_Data: {fileID: 11400000, guid: aa70c7215871da7449ecbf662ae8b9be, type: 2}
  - m_RefCount: 1
    m_Data: {fileID: 11400000, guid: 254d3c1dbe35227f6babc1cdf8b0920c, type: 2}
  - m_RefCount: 1
    m_Data: {fileID: 11400000, guid: 1526ab87dce6d67388fea98a8c77ea51, type: 2}
  - m_RefCount: 1
    m_Data: {fileID: 11400000, guid: fbe027ce2c8769f5f8818b5f537808ba, type: 2}
  - m_RefCount: 1
    m_Data: {fileID: 11400000, guid: 986b9e299d89a39798074e98b459f101, type: 2}
  - m_RefCount: 1
    m_Data: {fileID: 11400000, guid: cc07dcdc7a488bdb5b8ad42ee84fc4b9, type: 2}
  - m_RefCount: 1
    m_Data: {fileID: 11400000, guid: 44669f538b9be1822be65d46b1d38520, type: 2}
  - m_RefCount: 1
    m_Data: {fileID: 11400000, guid: 48ac3da6ab6e6a6ecb87bde3fed45f00, type: 2}
  - m_RefCount: 1
    m_Data: {fileID: 11400000, guid: 87cd821a786bd82eaa0dccd36fb54b2c, type: 2}
  m_TileSpriteArray:
  - m_RefCount: 1
    m_Data: {fileID: 294446652, guid: 33868bc0c9b8416eca1ae6f660c5947c, type: 3}
  - m_RefCount: 1
    m_Data: {fileID: 219423904, guid: 33868bc0c9b8416eca1ae6f660c5947c, type: 3}
  - m_RefCount: 1
    m_Data: {fileID: 1417970224, guid: 33868bc0c9b8416eca1ae6f660c5947c, type: 3}
  - m_RefCount: 1
    m_Data: {fileID: -1104911450, guid: 33868bc0c9b8416eca1ae6f660c5947c, type: 3}
  - m_RefCount: 1
    m_Data: {fileID: -764656421, guid: 33868bc0c9b8416eca1ae6f660c5947c, type: 3}
  - m_RefCount: 1
    m_Data: {fileID: 1534309936, guid: 33868bc0c9b8416eca1ae6f660c5947c, type: 3}
  - m_RefCount: 1
    m_Data: {fileID: 1762889622, guid: 33868bc0c9b8416eca1ae6f660c5947c, type: 3}
  - m_RefCount: 1
    m_Data: {fileID: 580782279, guid: 33868bc0c9b8416eca1ae6f660c5947c, type: 3}
  - m_RefCount: 1
    m_Data: {fileID: 22692870, guid: 33868bc0c9b8416eca1ae6f660c5947c, type: 3}
  - m_RefCount: 1
    m_Data: {fileID: -1892883018, guid: 33868bc0c9b8416eca1ae6f660c5947c, type: 3}
  - m_RefCount: 1
    m_Data: {fileID: 1371325155, guid: 33868bc0c9b8416eca1ae6f660c5947c, type: 3}
  - m_RefCount: 1
    m_Data: {fileID: -1972141197, guid: 33868bc0c9b8416eca1ae6f660c5947c, type: 3}
  - m_RefCount: 1
    m_Data: {fileID: -1424332359, guid: 33868bc0c9b8416eca1ae6f660c5947c, type: 3}
  - m_RefCount: 1
    m_Data: {fileID: 877784819, guid: 33868bc0c9b8416eca1ae6f660c5947c, type: 3}
  - m_RefCount: 1
    m_Data: {fileID: 1671507099, guid: 33868bc0c9b8416eca1ae6f660c5947c, type: 3}
  - m_RefCount: 1
    m_Data: {fileID: -199798579, guid: 33868bc0c9b8416eca1ae6f660c5947c, type: 3}
  - m_RefCount: 1
    m_Data: {fileID: -1512761042, guid: 33868bc0c9b8416eca1ae6f660c5947c, type: 3}
  - m_RefCount: 1
    m_Data: {fileID: 891892005, guid: 33868bc0c9b8416eca1ae6f660c5947c, type: 3}
  - m_RefCount: 1
    m_Data: {fileID: -922051673, guid: 33868bc0c9b8416eca1ae6f660c5947c, type: 3}
  - m_RefCount: 1
    m_Data: {fileID: -443235591, guid: 33868bc0c9b8416eca1ae6f660c5947c, type: 3}
  - m_RefCount: 1
    m_Data: {fileID: 1416480308, guid: 33868bc0c9b8416eca1ae6f660c5947c, type: 3}
  - m_RefCount: 1
    m_Data: {fileID: 2101016974, guid: 33868bc0c9b8416eca1ae6f660c5947c, type: 3}
  - m_RefCount: 1
    m_Data: {fileID: -922854452, guid: 33868bc0c9b8416eca1ae6f660c5947c, type: 3}
  - m_RefCount: 1
    m_Data: {fileID: 1940545518, guid: 33868bc0c9b8416eca1ae6f660c5947c, type: 3}
  - m_RefCount: 1
    m_Data: {fileID: 583826864, guid: 33868bc0c9b8416eca1ae6f660c5947c, type: 3}
  - m_RefCount: 1
    m_Data: {fileID: 1745450546, guid: 33868bc0c9b8416eca1ae6f660c5947c, type: 3}
  - m_RefCount: 1
    m_Data: {fileID: 504301563, guid: 33868bc0c9b8416eca1ae6f660c5947c, type: 3}
  - m_RefCount: 1
    m_Data: {fileID: -53174040, guid: 33868bc0c9b8416eca1ae6f660c5947c, type: 3}
  - m_RefCount: 1
    m_Data: {fileID: -2052209609, guid: 33868bc0c9b8416eca1ae6f660c5947c, type: 3}
  - m_RefCount: 1
    m_Data: {fileID: -697977584, guid: 33868bc0c9b8416eca1ae6f660c5947c, type: 3}
  - m_RefCount: 1
    m_Data: {fileID: -1720576658, guid: 33868bc0c9b8416eca1ae6f660c5947c, type: 3}
  m_TileMatrixArray:
  - m_RefCount: 31
    m_Data:
      e00: 1
      e01: 0
      e02: 0
      e03: 0
      e10: 0
      e11: 1
      e12: 0
      e13: 0
      e20: 0
      e21: 0
      e22: 1
      e23: 0
      e30: 0
      e31: 0
      e32: 0
      e33: 1
  m_TileColorArray:
  - m_RefCount: 31
    m_Data: {r: 1, g: 1, b: 1, a: 1}
  m_TileObjectToInstantiateArray: []
  m_AnimationFrameRate: 1
  m_Color: {r: 1, g: 1, b: 1, a: 1}
  m_Origin: {x: -1, y: 0, z: 0}
  m_Size: {x: 8, y: 6, z: 1}
  m_TileAnchor: {x: 0.5, y: 0.5, z: 0}
  m_TileOrientation: 0
  m_TileOrientationMatrix:
    e00: 1
    e01: 0
    e02: 0
    e03: 0
    e10: 0
    e11: 1
    e12: 0
    e13: 0
    e20: 0
    e21: 0
    e22: 1
    e23: 0
    e30: 0
    e31: 0
    e32: 0
    e33: 1
--- !u!483693784 &2610166636106882456
TilemapRenderer:
  m_ObjectHideFlags: 0
  m_CorrespondingSourceObject: {fileID: 0}
  m_PrefabInstance: {fileID: 0}
  m_PrefabAsset: {fileID: 0}
  m_GameObject: {fileID: 3866572055148130324}
  m_Enabled: 1
  m_CastShadows: 0
  m_ReceiveShadows: 0
  m_DynamicOccludee: 0
  m_StaticShadowCaster: 0
  m_MotionVectors: 1
  m_LightProbeUsage: 0
  m_ReflectionProbeUsage: 0
  m_RayTracingMode: 0
  m_RayTraceProcedural: 0
  m_RenderingLayerMask: 1
  m_RendererPriority: 0
  m_Materials:
  - {fileID: 10754, guid: 0000000000000000f000000000000000, type: 0}
  m_StaticBatchInfo:
    firstSubMesh: 0
    subMeshCount: 0
  m_StaticBatchRoot: {fileID: 0}
  m_ProbeAnchor: {fileID: 0}
  m_LightProbeVolumeOverride: {fileID: 0}
  m_ScaleInLightmap: 1
  m_ReceiveGI: 1
  m_PreserveUVs: 0
  m_IgnoreNormalsForChartDetection: 0
  m_ImportantGI: 0
  m_StitchLightmapSeams: 1
  m_SelectedEditorRenderState: 0
  m_MinimumChartSize: 4
  m_AutoUVMaxDistance: 0.5
  m_AutoUVMaxAngle: 89
  m_LightmapParameters: {fileID: 0}
  m_SortingLayerID: 0
  m_SortingLayer: 0
  m_SortingOrder: 0
  m_ChunkSize: {x: 32, y: 32, z: 32}
  m_ChunkCullingBounds: {x: 0, y: 0, z: 0}
  m_MaxChunkCount: 16
  m_MaxFrameAge: 16
  m_SortOrder: 0
  m_Mode: 0
  m_DetectChunkCullingBounds: 0
  m_MaskInteraction: 0
--- !u!1 &5625449609526858165
GameObject:
  m_ObjectHideFlags: 0
  m_CorrespondingSourceObject: {fileID: 0}
  m_PrefabInstance: {fileID: 0}
  m_PrefabAsset: {fileID: 0}
  serializedVersion: 6
  m_Component:
  - component: {fileID: 6427657787950668431}
  - component: {fileID: 3901531199626728060}
  m_Layer: 0
  m_Name: Ladrillos
  m_TagString: Untagged
  m_Icon: {fileID: 0}
  m_NavMeshLayer: 0
  m_StaticEditorFlags: 0
  m_IsActive: 1
--- !u!4 &6427657787950668431
Transform:
  m_ObjectHideFlags: 0
  m_CorrespondingSourceObject: {fileID: 0}
  m_PrefabInstance: {fileID: 0}
  m_PrefabAsset: {fileID: 0}
  m_GameObject: {fileID: 5625449609526858165}
  m_LocalRotation: {x: 0, y: 0, z: 0, w: 1}
  m_LocalPosition: {x: 0, y: 0, z: 0}
  m_LocalScale: {x: 1, y: 1, z: 1}
  m_ConstrainProportionsScale: 0
  m_Children:
  - {fileID: 5411873148015785945}
  m_Father: {fileID: 0}
  m_RootOrder: 0
  m_LocalEulerAnglesHint: {x: 0, y: 0, z: 0}
--- !u!156049354 &3901531199626728060
Grid:
  m_ObjectHideFlags: 0
  m_CorrespondingSourceObject: {fileID: 0}
  m_PrefabInstance: {fileID: 0}
  m_PrefabAsset: {fileID: 0}
  m_GameObject: {fileID: 5625449609526858165}
  m_Enabled: 1
  m_CellSize: {x: 1, y: 1, z: 0}
  m_CellGap: {x: 0, y: 0, z: 0}
  m_CellLayout: 0
  m_CellSwizzle: 0
--- !u!114 &1845465302635778864
MonoBehaviour:
  m_ObjectHideFlags: 0
  m_CorrespondingSourceObject: {fileID: 0}
  m_PrefabInstance: {fileID: 0}
  m_PrefabAsset: {fileID: 0}
  m_GameObject: {fileID: 0}
  m_Enabled: 1
  m_EditorHideFlags: 0
  m_Script: {fileID: 12395, guid: 0000000000000000e000000000000000, type: 0}
  m_Name: Palette Settings
  m_EditorClassIdentifier: 
  cellSizing: 0
  m_TransparencySortMode: 0
  m_TransparencySortAxis: {x: 0, y: 0, z: 1}
